%YAML 1.1
%TAG !u! tag:unity3d.com,2011:
--- !u!74 &7400000
AnimationClip:
  m_ObjectHideFlags: 0
  m_PrefabParentObject: {fileID: 0}
  m_PrefabInternal: {fileID: 0}
  m_Name: PupilsMove
  serializedVersion: 6
  m_Legacy: 0
  m_Compressed: 0
  m_UseHighQualityCurve: 1
  m_RotationCurves: []
  m_CompressedRotationCurves: []
  m_EulerCurves: []
  m_PositionCurves: []
  m_ScaleCurves: []
  m_FloatCurves:
  - curve:
      serializedVersion: 2
      m_Curve:
      - time: 0
        value: -84
        inSlope: 20.760004
        outSlope: 20.760004
        tangentMode: 10
      - time: 0.8333333
        value: -66.7
        inSlope: 10.380002
        outSlope: 10.380002
        tangentMode: 10
      - time: 1.25
        value: -66.7
        inSlope: -10.380003
        outSlope: -10.380003
        tangentMode: 10
      - time: 2.0833333
        value: -84
        inSlope: -10.380003
        outSlope: -10.380003
        tangentMode: 10
      - time: 2.5
        value: -84
        inSlope: -10.0199995
        outSlope: -10.0199995
        tangentMode: 10
      - time: 3.3333333
        value: -100.7
        inSlope: -10.0199995
        outSlope: -10.0199995
        tangentMode: 10
      - time: 3.75
        value: -100.7
        inSlope: 10.019997
        outSlope: 10.019997
        tangentMode: 10
      - time: 4.5833335
        value: -84
        inSlope: 10.019997
        outSlope: 10.019997
        tangentMode: 10
      - time: 5
        value: -84
        inSlope: 0
        outSlope: 0
        tangentMode: 10
      m_PreInfinity: 2
      m_PostInfinity: 2
      m_RotationOrder: 4
    attribute: m_AnchoredPosition.x
    path: PupilLeft
    classID: 224
    script: {fileID: 0}
  - curve:
      serializedVersion: 2
      m_Curve:
      - time: 0
        value: 55.800003
        inSlope: 1.9199982
        outSlope: 1.9199982
        tangentMode: 10
      - time: 0.8333333
        value: 57.4
        inSlope: 0.9599991
        outSlope: 0.9599991
        tangentMode: 10
      - time: 1.25
        value: 57.4
        inSlope: -0.9599992
        outSlope: -0.9599992
        tangentMode: 10
      - time: 2.0833333
        value: 55.800003
        inSlope: -0.9599992
        outSlope: -0.9599992
        tangentMode: 10
      - time: 2.5
        value: 55.800003
        inSlope: 0.9599992
        outSlope: 0.9599992
        tangentMode: 10
      - time: 3.3333333
        value: 57.4
        inSlope: 0.9599992
        outSlope: 0.9599992
        tangentMode: 10
      - time: 3.75
        value: 57.4
        inSlope: -0.9599989
        outSlope: -0.9599989
        tangentMode: 10
      - time: 4.5833335
        value: 55.800003
        inSlope: -0.9599989
        outSlope: -0.9599989
        tangentMode: 10
      - time: 5
        value: 55.800003
        inSlope: 0
        outSlope: 0
        tangentMode: 10
      m_PreInfinity: 2
      m_PostInfinity: 2
      m_RotationOrder: 4
    attribute: m_AnchoredPosition.y
    path: PupilLeft
    classID: 224
    script: {fileID: 0}
  - curve:
      serializedVersion: 2
      m_Curve:
      - time: 0
        value: 84.3
        inSlope: 20.759995
        outSlope: 20.759995
        tangentMode: 10
      - time: 0.8333333
        value: 101.6
        inSlope: 10.379997
        outSlope: 10.379997
        tangentMode: 10
      - time: 1.25
        value: 101.6
        inSlope: -10.379998
        outSlope: -10.379998
        tangentMode: 10
      - time: 2.0833333
        value: 84.3
        inSlope: -10.379998
        outSlope: -10.379998
        tangentMode: 10
      - time: 2.5
        value: 84.3
        inSlope: -10.020003
        outSlope: -10.020003
        tangentMode: 10
      - time: 3.3333333
        value: 67.6
        inSlope: -10.020003
        outSlope: -10.020003
        tangentMode: 10
      - time: 3.75
        value: 67.6
        inSlope: 10.02
        outSlope: 10.02
        tangentMode: 10
      - time: 4.5833335
        value: 84.3
        inSlope: 10.02
        outSlope: 10.02
        tangentMode: 10
      - time: 5
        value: 84.3
        inSlope: 0
        outSlope: 0
        tangentMode: 10
      m_PreInfinity: 2
      m_PostInfinity: 2
      m_RotationOrder: 4
    attribute: m_AnchoredPosition.x
    path: PupilRight
    classID: 224
    script: {fileID: 0}
  - curve:
      serializedVersion: 2
      m_Curve:
      - time: 0
        value: 55.800034
        inSlope: 1.9199616
        outSlope: 1.9199616
        tangentMode: 10
      - time: 0.8333333
        value: 57.4
        inSlope: 0.9599808
        outSlope: 0.9599808
        tangentMode: 10
      - time: 1.25
        value: 57.4
        inSlope: -0.95998085
        outSlope: -0.95998085
        tangentMode: 10
      - time: 2.0833333
        value: 55.800034
        inSlope: -0.95998085
        outSlope: -0.95998085
        tangentMode: 10
      - time: 2.5
        value: 55.800034
        inSlope: 0.95998085
        outSlope: 0.95998085
        tangentMode: 10
      - time: 3.3333333
        value: 57.4
        inSlope: 0.95998085
        outSlope: 0.95998085
        tangentMode: 10
      - time: 3.75
        value: 57.4
        inSlope: -0.9599806
        outSlope: -0.9599806
        tangentMode: 10
      - time: 4.5833335
        value: 55.800034
        inSlope: -0.9599806
        outSlope: -0.9599806
        tangentMode: 10
      - time: 5
        value: 55.800034
        inSlope: 0
        outSlope: 0
        tangentMode: 10
      m_PreInfinity: 2
      m_PostInfinity: 2
      m_RotationOrder: 4
    attribute: m_AnchoredPosition.y
    path: PupilRight
    classID: 224
    script: {fileID: 0}
  m_PPtrCurves: []
  m_SampleRate: 60
  m_WrapMode: 0
  m_Bounds:
    m_Center: {x: 0, y: 0, z: 0}
    m_Extent: {x: 0, y: 0, z: 0}
  m_ClipBindingConstant:
    genericBindings:
    - path: 346769811
      attribute: 1460864421
      script: {fileID: 0}
      classID: 224
      customType: 0
      isPPtrCurve: 0
    - path: 346769811
      attribute: 538195251
      script: {fileID: 0}
      classID: 224
      customType: 0
      isPPtrCurve: 0
    - path: 2664141358
      attribute: 1460864421
      script: {fileID: 0}
      classID: 224
      customType: 0
      isPPtrCurve: 0
    - path: 2664141358
      attribute: 538195251
      script: {fileID: 0}
      classID: 224
      customType: 0
      isPPtrCurve: 0
    pptrCurveMapping: []
  m_AnimationClipSettings:
    serializedVersion: 2
    m_AdditiveReferencePoseClip: {fileID: 0}
    m_AdditiveReferencePoseTime: 0
    m_StartTime: 0
    m_StopTime: 5
    m_OrientationOffsetY: 0
    m_Level: 0
    m_CycleOffset: 0
    m_HasAdditiveReferencePose: 0
    m_LoopTime: 1
    m_LoopBlend: 0
    m_LoopBlendOrientation: 0
    m_LoopBlendPositionY: 0
    m_LoopBlendPositionXZ: 0
    m_KeepOriginalOrientation: 0
    m_KeepOriginalPositionY: 1
    m_KeepOriginalPositionXZ: 0
    m_HeightFromFeet: 0
    m_Mirror: 0
  m_EditorCurves:
  - curve:
      serializedVersion: 2
      m_Curve:
      - time: 0
        value: -84
        inSlope: 20.760004
        outSlope: 20.760004
        tangentMode: 10
      - time: 0.8333333
        value: -66.7
        inSlope: 10.380002
        outSlope: 10.380002
        tangentMode: 10
      - time: 1.25
        value: -66.7
        inSlope: -10.380003
        outSlope: -10.380003
        tangentMode: 10
      - time: 2.0833333
        value: -84
        inSlope: -10.380003
        outSlope: -10.380003
        tangentMode: 10
      - time: 2.5
        value: -84
        inSlope: -10.0199995
        outSlope: -10.0199995
        tangentMode: 10
      - time: 3.3333333
        value: -100.7
        inSlope: -10.0199995
        outSlope: -10.0199995
        tangentMode: 10
      - time: 3.75
        value: -100.7
        inSlope: 10.019997
        outSlope: 10.019997
        tangentMode: 10
      - time: 4.5833335
        value: -84
        inSlope: 10.019997
        outSlope: 10.019997
        tangentMode: 10
      - time: 5
        value: -84
        inSlope: 0
        outSlope: 0
        tangentMode: 10
      m_PreInfinity: 2
      m_PostInfinity: 2
      m_RotationOrder: 4
    attribute: m_AnchoredPosition.x
    path: PupilLeft
    classID: 224
    script: {fileID: 0}
  - curve:
      serializedVersion: 2
      m_Curve:
      - time: 0
        value: 55.800003
        inSlope: 1.9199982
        outSlope: 1.9199982
        tangentMode: 10
      - time: 0.8333333
        value: 57.4
        inSlope: 0.9599991
        outSlope: 0.9599991
        tangentMode: 10
      - time: 1.25
        value: 57.4
        inSlope: -0.9599992
        outSlope: -0.9599992
        tangentMode: 10
      - time: 2.0833333
        value: 55.800003
        inSlope: -0.9599992
        outSlope: -0.9599992
        tangentMode: 10
      - time: 2.5
        value: 55.800003
        inSlope: 0.9599992
        outSlope: 0.9599992
        tangentMode: 10
      - time: 3.3333333
        value: 57.4
        inSlope: 0.9599992
        outSlope: 0.9599992
        tangentMode: 10
      - time: 3.75
        value: 57.4
        inSlope: -0.9599989
        outSlope: -0.9599989
        tangentMode: 10
      - time: 4.5833335
        value: 55.800003
        inSlope: -0.9599989
        outSlope: -0.9599989
        tangentMode: 10
      - time: 5
        value: 55.800003
        inSlope: 0
        outSlope: 0
        tangentMode: 10
      m_PreInfinity: 2
      m_PostInfinity: 2
      m_RotationOrder: 4
    attribute: m_AnchoredPosition.y
    path: PupilLeft
    classID: 224
    script: {fileID: 0}
  - curve:
      serializedVersion: 2
      m_Curve:
      - time: 0
        value: 84.3
        inSlope: 20.759995
        outSlope: 20.759995
        tangentMode: 10
      - time: 0.8333333
        value: 101.6
        inSlope: 10.379997
        outSlope: 10.379997
        tangentMode: 10
      - time: 1.25
        value: 101.6
        inSlope: -10.379998
        outSlope: -10.379998
        tangentMode: 10
      - time: 2.0833333
        value: 84.3
        inSlope: -10.379998
        outSlope: -10.379998
        tangentMode: 10
      - time: 2.5
        value: 84.3
        inSlope: -10.020003
        outSlope: -10.020003
        tangentMode: 10
      - time: 3.3333333
        value: 67.6
        inSlope: -10.020003
        outSlope: -10.020003
        tangentMode: 10
      - time: 3.75
        value: 67.6
        inSlope: 10.02
        outSlope: 10.02
        tangentMode: 10
      - time: 4.5833335
        value: 84.3
        inSlope: 10.02
        outSlope: 10.02
        tangentMode: 10
      - time: 5
        value: 84.3
        inSlope: 0
        outSlope: 0
        tangentMode: 10
      m_PreInfinity: 2
      m_PostInfinity: 2
      m_RotationOrder: 4
    attribute: m_AnchoredPosition.x
    path: PupilRight
    classID: 224
    script: {fileID: 0}
  - curve:
      serializedVersion: 2
      m_Curve:
      - time: 0
        value: 55.800034
        inSlope: 1.9199616
        outSlope: 1.9199616
        tangentMode: 10
      - time: 0.8333333
        value: 57.4
        inSlope: 0.9599808
        outSlope: 0.9599808
        tangentMode: 10
      - time: 1.25
        value: 57.4
        inSlope: -0.95998085
        outSlope: -0.95998085
        tangentMode: 10
      - time: 2.0833333
        value: 55.800034
        inSlope: -0.95998085
        outSlope: -0.95998085
        tangentMode: 10
      - time: 2.5
        value: 55.800034
        inSlope: 0.95998085
        outSlope: 0.95998085
        tangentMode: 10
      - time: 3.3333333
        value: 57.4
        inSlope: 0.95998085
        outSlope: 0.95998085
        tangentMode: 10
      - time: 3.75
        value: 57.4
        inSlope: -0.9599806
        outSlope: -0.9599806
        tangentMode: 10
      - time: 4.5833335
        value: 55.800034
        inSlope: -0.9599806
        outSlope: -0.9599806
        tangentMode: 10
      - time: 5
        value: 55.800034
        inSlope: 0
        outSlope: 0
        tangentMode: 10
      m_PreInfinity: 2
      m_PostInfinity: 2
      m_RotationOrder: 4
    attribute: m_AnchoredPosition.y
    path: PupilRight
    classID: 224
    script: {fileID: 0}
  m_EulerEditorCurves: []
  m_HasGenericRootTransform: 0
  m_HasMotionFloatCurves: 0
  m_GenerateMotionCurves: 0
  m_Events: []
